{
    "KPlugin": {
        "Authors": [
            {
                "Email": "stephane@mankowski.fr",
                "Name": "Stephane MANKOWSKI,miraks",
                "Name[ca@valencia]": "Stephane MANKOWSKI,miraks",
                "Name[ca]": "Stephane MANKOWSKI,miraks",
                "Name[es]": "Stephane MANKOWSKI,miraks",
                "Name[fr]": "Stephane MANKOWSKI, miraks",
                "Name[it]": "Stephane MANKOWSKI,miraks",
                "Name[nl]": "Stephane MANKOWSKI,miraks",
                "Name[pt]": "Stephane MANKOWSKI,miraks",
                "Name[sl]": "Stephane MANKOWSKI,miraks",
                "Name[uk]": "Stephane MANKOWSKI,miraks",
                "Name[x-test]": "xxStephane MANKOWSKI,miraksxx"
            }
        ],
        "Category": "Plugins",
        "Description": "A plugin to print pages",
        "Description[ca@valencia]": "Un connector per a imprimir pàgines",
        "Description[ca]": "Un connector per a imprimir pàgines",
        "Description[es]": "Complemento para imprimir páginas",
        "Description[fr]": "Un module externe pour l'impression de pages",
        "Description[it]": "Un'estensione per stampare pagine",
        "Description[nl]": "Een plugin voor het afdrukken van pagina's",
        "Description[pt]": "Um 'plugin' para imprimir páginas.",
        "Description[sl]": "Vtičnik za tiskanje strani",
        "Description[uk]": "Додаток для друку сторінок",
        "Description[x-test]": "xxA plugin to print pagesxx",
        "EnabledByDefault": true,
        "Icon": "quickopen",
        "Id": "skg_print",
        "License": "GPL",
        "Name": "Print plugin",
        "Name[bs]": "Dodatak za štampanje",
        "Name[ca@valencia]": "Connector d'impressió",
        "Name[ca]": "Connector d'impressió",
        "Name[cs]": "Modul pro tisk",
        "Name[da]": "Udskrifts-plugin",
        "Name[de]": "Druck-Modul",
        "Name[el]": "Print plugin",
        "Name[en_GB]": "Print plugin",
        "Name[es]": "Complemento de impresión",
        "Name[et]": "Trükkimisplugin",
        "Name[fi]": "Tulostusliitännäinen",
        "Name[fr]": "Moteur externe pour l'impression",
        "Name[gl]": "Complemento de impresión",
        "Name[hu]": "Nyomtatás bővítmény",
        "Name[it]": "Estensione di stampa",
        "Name[lt]": "Spausdinimo papildinys",
        "Name[nb]": "Utskriftsmodul",
        "Name[nds]": "Druckmoduul",
        "Name[nl]": "Plugin voor afdrukken",
        "Name[pl]": "Wtyczka wydruku",
        "Name[pt]": "'Plugin' de impressão",
        "Name[pt_BR]": "Plugin de impressão",
        "Name[ru]": "Модуль печати",
        "Name[sk]": "Tlačový plugin",
        "Name[sl]": "Vtičnik tiskanja",
        "Name[sv]": "Utskriftsinsticksprogram",
        "Name[tr]": "Yazdırma eklentisi",
        "Name[uk]": "Додаток друку",
        "Name[x-test]": "xxPrint pluginxx",
        "Name[zh_TW]": "列印外掛程式",
        "ServiceTypes": [
            "SKG GUI/Plugin"
        ],
        "Version": "1.0",
        "Website": "https://skrooge.org/"
    },
    "X-Krunner-ID": "Skrooge print plugin"
}
