{
    "KPlugin": {
        "Authors": [
            {
                "Email": "stephane@mankowski.fr",
                "Name": "Stephane MANKOWSKI",
                "Name[ca@valencia]": "Stephane MANKOWSKI",
                "Name[ca]": "Stephane MANKOWSKI",
                "Name[es]": "Stephane MANKOWSKI",
                "Name[fr]": "Stephane MANKOWSKI",
                "Name[it]": "Stephane MANKOWSKI",
                "Name[nl]": "Stephane MANKOWSKI",
                "Name[pt]": "Stephane MANKOWSKI",
                "Name[sl]": "Stephane MANKOWSKI",
                "Name[uk]": "Stephane MANKOWSKI",
                "Name[x-test]": "xxStephane MANKOWSKIxx"
            }
        ],
        "Category": "Plugins",
        "Description": "A Skrooge plugin to import SKG files",
        "Description[ca@valencia]": "Un connector de Skrooge per a importar fitxers SKG",
        "Description[ca]": "Un connector de l'Skrooge per a importar fitxers SKG",
        "Description[es]": "Complemento de Skrooge para importar archivos SKG",
        "Description[fr]": "Un module externe de Skrooge pour l'importation de fichiers « SKG »",
        "Description[it]": "Un'estensione di Skrooge per importare i file SKG",
        "Description[nl]": "Een Skrooge-plugin voor het importeren van SKG-bestanden",
        "Description[pt]": "Um 'plugin' do Skrooge para importar ficheiros SKG",
        "Description[sl]": "Vtičnik Skrooge za uvažanje datotek SKG",
        "Description[uk]": "Додаток до Skrooge для імпортування даних з файлів SKG",
        "Description[x-test]": "xxA Skrooge plugin to import SKG filesxx",
        "EnabledByDefault": true,
        "Icon": "skrooge",
        "Id": "skrooge_import_skg",
        "License": "GPL",
        "Name": "Skrooge import SKG plugin",
        "Name[bs]": "Skrooge dodatak za SKG uvoz",
        "Name[ca@valencia]": "Connector d'importació de SKG de Skrooge",
        "Name[ca]": "Connector d'importació de SKG de l'Skrooge",
        "Name[cs]": "Modul Skrooge pro import SKG",
        "Name[da]": "Plugin til import af SKG til Skrooge",
        "Name[de]": "Skrooge-SKG-Importmodul",
        "Name[el]": "Skrooge import SKG plugin",
        "Name[en_GB]": "Skrooge import SKG plugin",
        "Name[es]": "Complemento de importación SKG en Skrooge",
        "Name[et]": "Skrooge SKG impordi plugin",
        "Name[fi]": "Skroogen SKG-tuontiliitännäinen",
        "Name[fr]": "Moteur externe de Skrooge pour l'importation « SKG »",
        "Name[gl]": "Complemento de importación de SKG a Skrooge",
        "Name[hu]": "Skrooge SKG importáló bővítmény",
        "Name[it]": "Estensione di Skrooge per l'importazione SKG",
        "Name[lt]": "Skrooge SKG importavimo papildinys",
        "Name[nb]": "Skrooge-modul for SKG-import",
        "Name[nl]": "Plugin van Skrooge voor importeren van SKG",
        "Name[pl]": "Wtyczka importu SKG dla Skrooge",
        "Name[pt]": "'Plugin' de importação de SKG do Skrooge",
        "Name[pt_BR]": "Plugin de importação de SKG para o Skrooge",
        "Name[ru]": "Модуль импорта файлов SKG",
        "Name[sk]": "Skrooge plugin SKG import",
        "Name[sl]": "Vtičnik Skrooge uvoza SKG",
        "Name[sv]": "Skrooge SKG-importinsticksprogram",
        "Name[tr]": "Skrooge SKG içe aktarma eklentisi",
        "Name[uk]": "Додаток імпортування SKG до Skrooge",
        "Name[x-test]": "xxSkrooge import SKG pluginxx",
        "Name[zh_TW]": "Skrooge 匯入 SKG 外掛程式",
        "ServiceTypes": [
            "SKG IMPORT/Plugin"
        ],
        "Version": "1.0",
        "Website": "https://skrooge.org/"
    },
    "X-Krunner-ID": "Skrooge import SKG plugin"
}
