{
    "KPlugin": {
        "Authors": [
            {
                "Email": "stephane@mankowski.fr",
                "Name": "Stephane MANKOWSKI",
                "Name[ca@valencia]": "Stephane MANKOWSKI",
                "Name[ca]": "Stephane MANKOWSKI",
                "Name[es]": "Stephane MANKOWSKI",
                "Name[fr]": "Stephane MANKOWSKI",
                "Name[it]": "Stephane MANKOWSKI",
                "Name[nl]": "Stephane MANKOWSKI",
                "Name[pt]": "Stephane MANKOWSKI",
                "Name[sl]": "Stephane MANKOWSKI",
                "Name[uk]": "Stephane MANKOWSKI",
                "Name[x-test]": "xxStephane MANKOWSKIxx"
            }
        ],
        "Category": "Plugins",
        "Description": "A Skrooge plugin to import files from backends",
        "Description[ca@valencia]": "Un connector de Skrooge per a importar fitxers des de dorsals",
        "Description[ca]": "Un connector de l'Skrooge per a importar fitxers des de dorsals",
        "Description[es]": "Complemento de Skrooge para importar archivos de motores",
        "Description[fr]": "Un module externe de Skrooge pour l'importation de fichiers provenant de moteurs",
        "Description[it]": "Un'estensione di Skrooge per importare i file dai motori",
        "Description[nl]": "Een Skrooge-plugin voor het importeren van bestanden van backends",
        "Description[pt]": "Um 'plugin' do Skrooge para importar ficheiros de outras infra-estruturas",
        "Description[sl]": "Vtičnik Skrooge za uvažanje datotek iz začelja",
        "Description[uk]": "Додаток до Skrooge для імпортування даних з модулів",
        "Description[x-test]": "xxA Skrooge plugin to import files from backendsxx",
        "EnabledByDefault": true,
        "Icon": "skrooge",
        "Id": "skrooge_import_backend",
        "License": "GPL",
        "Name": "Skrooge import backend plugin",
        "Name[bs]": "Skrooge dodatak za backend uvoz",
        "Name[ca@valencia]": "Connector de dorsal d'importació de Skrooge",
        "Name[ca]": "Connector de dorsal d'importació de l'Skrooge",
        "Name[cs]": "Modul podpůrné vrstvy Skrooge pro import",
        "Name[da]": "Backend-plugin til Skrooge-import",
        "Name[de]": "Skrooge-Import-Backendmodul",
        "Name[el]": "Skrooge import backend plugin",
        "Name[en_GB]": "Skrooge import backend plugin",
        "Name[es]": "Complemento de importación de motor en Skrooge",
        "Name[et]": "Skrooge taustaprogrammist importimise plugin",
        "Name[fi]": "Skroogen tuontitaustaosan liitännäinen",
        "Name[fr]": "Moteur externe de Skrooge pour l'importation par moteur externe",
        "Name[gl]": "Complemento de infraestrutura de importación de Skrooge",
        "Name[hu]": "Skrooge importáló háttérprogram bővítmény",
        "Name[it]": "Estensione di Skrooge del motore di importazione",
        "Name[lt]": "Skrooge importo galinės sąsajos papildinys",
        "Name[nl]": "Plug-in voor importbackend van Skrooge",
        "Name[pl]": "Wtyczka silnika importu dla Skrooge",
        "Name[pt]": "'Plugin' de infra-estrutura de importação do Skrooge",
        "Name[pt_BR]": "Plugin da infraestrutura de importação do Skrooge",
        "Name[ru]": "Модуль движка импорта",
        "Name[sk]": "Plugin backendu importu Skrooge",
        "Name[sl]": "Vtičnik uvoza Skrooge zaledja",
        "Name[sv]": "Skrooge gränssnittsinsticksprogram för import",
        "Name[tr]": "Skrooge içe aktarma uygulaması eklentisi",
        "Name[uk]": "Додаток модуля імпортування Skrooge",
        "Name[x-test]": "xxSkrooge import backend pluginxx",
        "Name[zh_TW]": "Skrooge 匯入後端介面外掛程式",
        "ServiceTypes": [
            "SKG IMPORT/Plugin"
        ],
        "Version": "1.0",
        "Website": "https://skrooge.org/"
    },
    "X-Krunner-ID": "Skrooge import backend plugin"
}
