{
    "KPlugin": {
        "Authors": [
            {
                "Email": "stephane@mankowski.fr",
                "Name": "Stephane MANKOWSKI,miraks",
                "Name[ca@valencia]": "Stephane MANKOWSKI,miraks",
                "Name[ca]": "Stephane MANKOWSKI,miraks",
                "Name[es]": "Stephane MANKOWSKI,miraks",
                "Name[fr]": "Stephane MANKOWSKI, miraks",
                "Name[it]": "Stephane MANKOWSKI,miraks",
                "Name[nl]": "Stephane MANKOWSKI,miraks",
                "Name[pt]": "Stephane MANKOWSKI,miraks",
                "Name[sl]": "Stephane MANKOWSKI,miraks",
                "Name[uk]": "Stephane MANKOWSKI,miraks",
                "Name[x-test]": "xxStephane MANKOWSKI,miraksxx"
            }
        ],
        "Category": "Plugins",
        "Description": "A plugin to highlight objects",
        "Description[ca@valencia]": "Un connector per a ressaltar objectes",
        "Description[ca]": "Un connector per a ressaltar objectes",
        "Description[es]": "Complemento para resaltar objetos",
        "Description[fr]": "Un module externe de mise en évidence d'objets",
        "Description[it]": "Un'estensione per evidenziare gli oggetti",
        "Description[nl]": "Een plugin voor het accentueren van objecten",
        "Description[pt]": "Um 'plugin' para realçar objectos",
        "Description[sl]": "Vtičnik za osvetljevanje predmetov",
        "Description[uk]": "Додаток для підсвічування об’єктів",
        "Description[x-test]": "xxA plugin to highlight objectsxx",
        "EnabledByDefault": true,
        "Icon": "quickopen",
        "Id": "skg_highlight",
        "License": "GPL",
        "Name": "Highlight plugin",
        "Name[bs]": "Dodatak za obilježavanje",
        "Name[ca@valencia]": "Connector de ressaltat",
        "Name[ca]": "Connector de ressaltat",
        "Name[cs]": "Modul pro zvýraznění",
        "Name[da]": "Fremhævningsplugin",
        "Name[de]": "Hervorhebungs-Modul",
        "Name[el]": "Πρόσθετο τονισμού",
        "Name[en_GB]": "Highlight plugin",
        "Name[es]": "Complemento de resaltado",
        "Name[et]": "Esiletõstmise plugin",
        "Name[fi]": "Korostusliitännäinen",
        "Name[fr]": "Moteur externe de mise en valeur",
        "Name[ga]": "Breiseán aibhsithe",
        "Name[gl]": "Complemento de realzado",
        "Name[hu]": "Kiemelés bővítmény",
        "Name[it]": "Estensione di evidenziazione",
        "Name[lt]": "Paryškinimo papildinys",
        "Name[nb]": "Programtillegg for fremheving",
        "Name[nds]": "Syntaxmarkeren-Moduul",
        "Name[nl]": "Plugin voor accentueren",
        "Name[pl]": "Wtyczka podświetlenia",
        "Name[pt]": "'Plugin' de realce",
        "Name[pt_BR]": "Plugin de realce",
        "Name[ru]": "Модуль пометки",
        "Name[sk]": "Plugin zvýraznenia",
        "Name[sl]": "Vtičnik osvetljevanja",
        "Name[sv]": "Markeringsinsticksprogram",
        "Name[tr]": "Vurgulama eklentisi",
        "Name[ug]": "يورۇتۇش قىستۇرمىسى",
        "Name[uk]": "Додаток підсвічування",
        "Name[x-test]": "xxHighlight pluginxx",
        "Name[zh_TW]": "突顯外掛程式",
        "ServiceTypes": [
            "SKG GUI/Plugin"
        ],
        "Version": "1.0",
        "Website": "https://skrooge.org/"
    },
    "X-Krunner-ID": "Highlight plugin"
}
