Export Format, Date (YYYY-MM-DD as UTC), Time (HH:MM:SS), Merchant, Txn Amount (Funding Card), Txn Currency (Funding Card), Txn Amount (Foreign Spend), Txn Currency (Foreign Spend), Card Name, Card Last 4 Digits, Type, Category, Notes
CSV, 2019-08-01, 11:49:53, "Ireland Vending", 3.500000, EUR, 0.000000, , "KBC Credit",  7427, , Food & Drink, 
CSV, 2019-08-02, 09:04:35, "Gather & Gather", 3.150000, EUR, 0.000000, , "KBC Credit",  7427, , Food & Drink, 
CSV, 2019-08-03, 10:24:05, "Curve Cash: Tesco", 98.000000, CPT, 0.000000, , "Curve Cash",  (null), , (null), 
CSV, 2019-08-03, 12:07:12, "Jack  Jones", 25.000000, EUR, 0.000000, , "KBC Credit",  7427, , Shopping, 
CSV, 2019-09-03, 08:12:19, "Amznmktplace", 42.720000, EUR, 38.060000, GBP, "Cepsa",  1575, , Shopping, 
CSV, 2019-09-03, 08:12:21, "Curve Cash: Amznmktplace          ", 39.000000, CPT, 0.000000, , "Curve Cash",  (null), , , 
CSV, 2019-09-21, 10:20:47, "Mip*3ireland Top Up", 20.000000, EUR, 0.000000, , "KBC Credit",  7427, , Bills, 
CSV, 2019-09-21, 16:30:43, "Tesco", 79.720000, EUR, 0.000000, , "KBC Credit",  7427, , Groceries, 
CSV, 2019-09-21, 16:30:46, "Curve Cash: Tesco", 70.000000, CPT, 0.000000, , "Curve Cash",  (null), , , 
CSV, 2019-09-21, 16:45:31, "Star Buys", 9.150000, EUR, 0.000000, , "KBC Credit",  7427, , Shopping, 
