{
    "KPlugin": {
        "Authors": [
            {
                "Email": "stephane@mankowski.fr",
                "Name": "Stephane MANKOWSKI",
                "Name[ca@valencia]": "Stephane MANKOWSKI",
                "Name[ca]": "Stephane MANKOWSKI",
                "Name[es]": "Stephane MANKOWSKI",
                "Name[fr]": "Stephane MANKOWSKI",
                "Name[it]": "Stephane MANKOWSKI",
                "Name[nl]": "Stephane MANKOWSKI",
                "Name[pt]": "Stephane MANKOWSKI",
                "Name[sl]": "Stephane MANKOWSKI",
                "Name[uk]": "Stephane MANKOWSKI",
                "Name[x-test]": "xxStephane MANKOWSKIxx"
            }
        ],
        "Category": "Qt;KDE;Office;Finance;",
        "Description": "Add a new operation in skrooge",
        "Description[ca@valencia]": "Afig una operació nova en Skrooge",
        "Description[ca]": "Afegeix una operació nova a l'Skrooge",
        "Description[es]": "Añadir una nueva operación en Skrooge",
        "Description[fr]": "Ajouter une nouvelle opération à Skrooge",
        "Description[it]": "Aggiungi una nuova operazione in skrooge",
        "Description[nl]": "Een nieuwe operatie toevoegen aan skrooge",
        "Description[pt]": "Adição de uma nova operação no Skrooge.",
        "Description[sl]": "Dodaj novo operacijo v Skrooge",
        "Description[uk]": "Додавання нової операції у Skrooge",
        "Description[x-test]": "xxAdd a new operation in skroogexx",
        "EnabledByDefault": true,
        "Icon": "skrooge",
        "Id": "skroogeaddoperation",
        "License": "LGPL",
        "Name": "Skrooge",
        "Name[ar]": "راصد",
        "Name[bs]": "Skrooge",
        "Name[ca@valencia]": "Skrooge",
        "Name[ca]": "Skrooge",
        "Name[cs]": "Skrooge",
        "Name[da]": "Skrooge",
        "Name[de]": "Skrooge",
        "Name[el]": "Skrooge",
        "Name[en_GB]": "Skrooge",
        "Name[eo]": "Skrooge",
        "Name[es]": "Skrooge",
        "Name[et]": "Skrooge",
        "Name[fi]": "Skrooge",
        "Name[fr]": "Skrooge",
        "Name[gl]": "Skrooge",
        "Name[hu]": "Skrooge",
        "Name[ia]": "Skrooge",
        "Name[it]": "Skrooge",
        "Name[ka]": "Skrooge",
        "Name[lt]": "Skrooge",
        "Name[nb]": "Skrooge",
        "Name[nl]": "Skrooge",
        "Name[pl]": "Skrooge",
        "Name[pt]": "Skrooge",
        "Name[pt_BR]": "Skrooge",
        "Name[ru]": "Skrooge",
        "Name[sk]": "Skrooge",
        "Name[sl]": "Skrooge",
        "Name[sv]": "Skrooge",
        "Name[tr]": "Skrooge",
        "Name[uk]": "Skrooge",
        "Name[x-test]": "xxSkroogexx",
        "Name[zh_CN]": "Skrooge",
        "Name[zh_TW]": "Skrooge",
        "ServiceTypes": [
            "Plasma/Runner"
        ],
        "Version": "1.0",
        "Website": "https://skrooge.org/"
    }
}
